%YAML 1.1
%TAG !u! tag:unity3d.com,2011:
--- !u!1045 &1
EditorBuildSettings:
  m_ObjectHideFlags: 0
  serializedVersion: 2
  m_Scenes:
  - enabled: 1
    path: Assets/scenes/menu.unity
    guid: 34db4bbc1d527d74b92d8fa7acb881f8
  - enabled: 1
    path: Assets/scenes/board.unity
    guid: ee5a1075bcc05384eb4bae33c416477c
